<svg xmlns="http://www.w3.org/2000/svg" width="59.4" height="59.4" viewBox="0 0 59.4 59.4">
  <g id="Grupo_16" data-name="Grupo 16" transform="translate(-419 -1739)">
    <circle id="Elipse_3" data-name="Elipse 3" cx="29.7" cy="29.7" r="29.7" transform="translate(419 1739)" fill="#fff"/>
    <g id="Icon_feather-clock" data-name="Icon feather-clock" transform="translate(434 1754)">
      <path id="Trazado_44" data-name="Trazado 44" d="M31.795,17.4A14.4,14.4,0,1,1,17.4,3,14.4,14.4,0,0,1,31.795,17.4Z" transform="translate(-3 -3)" fill="none" stroke="#c21920" stroke-linecap="round" stroke-linejoin="round" stroke-width="1.7"/>
      <path id="Trazado_45" data-name="Trazado 45" d="M18,9v8.638l5.759,2.879" transform="translate(-3.603 -3.241)" fill="none" stroke="#c21920" stroke-linecap="round" stroke-linejoin="round" stroke-width="1.7"/>
    </g>
  </g>
</svg>
